Grammar

    0 $accept: axiom $end

    1 axiom: %empty
    2      | axiom expr
    3      | axiom function_def

    4 function_call: _CALL_KW id _WITH_KW hash

    5 multiple_expr: expr
    6              | multiple_expr expr

    7 end: _END_KW

    8 begin: _THEN_KW

    9 block: begin multiple_expr end

   10 conditional: _IF_KW expr block
   11            | _UNLESS_KW expr block
   12            | _WHILE_KW expr block
   13            | _UNTIL_KW expr block

   14 function_def: id _AS_KW _FUNCTION_KW _OF_OP id block

   15 key_value_pair: id _PROJECTS_TO expr

   16 key_value_pairs: key_value_pair
   17                | key_value_pair _COMMA key_value_pairs

   18 id: _ID

   19 hash_start: _HASH

   20 hash: hash_start _INDENT _OUTDENT
   21     | hash_start _INDENT key_value_pairs _OUTDENT

   22 logic: _TRUE
   23      | _FALSE

   24 val: _NUMERIC
   25    | _STRING
   26    | id
   27    | hash
   28    | logic

   29 expr: expr _MUL_OP expr
   30     | expr _DIV_OP expr
   31     | expr _PLUS_OP expr
   32     | expr _MINUS_OP expr
   33     | expr _AND_OP expr
   34     | expr _OR_OP expr
   35     | expr _EQUALS_OP expr
   36     | id _ASSIGN_OP expr
   37     | _LOCAL_KW id _ASSIGN_OP expr
   38     | id _OF_OP expr
   39     | _NOT_OP expr
   40     | _PRINT_OP expr
   41     | _INDENT expr _OUTDENT
   42     | conditional
   43     | function_call
   44     | val


Terminals, with rules where they appear

$end (0) 0
error (256)
_CALL_KW (258) 4
_THEN_KW (259) 8
_END_KW (260) 7
_FUNCTION_KW (261) 14
_WITH_KW (262) 4
_PROJECTS_TO (263) 15
_AS_KW (264) 14
_COMMA (265) 17
_HASH (266) 19
_LOCAL_KW (267) 37
_IF_KW (268) 10
_UNLESS_KW (269) 11
_WHILE_KW (270) 12
_UNTIL_KW (271) 13
_ID (272) 18
_STRING (273) 25
_NUMERIC (274) 24
_FALSE (275) 23
_TRUE (276) 22
_INDENT (277) 20 21 41
_OUTDENT (278) 20 21 41
_PRINT_OP (279) 40
_ASSIGN_OP (280) 36 37
_PLUS_OP (281) 31
_MINUS_OP (282) 32
_MUL_OP (283) 29
_DIV_OP (284) 30
_AND_OP (285) 33
_OR_OP (286) 34
_EQUALS_OP (287) 35
_NOT_OP (288) 39
_OF_OP (289) 14 38


Nonterminals, with rules where they appear

$accept (35)
    on left: 0
axiom (36)
    on left: 1 2 3, on right: 0 2 3
function_call (37)
    on left: 4, on right: 43
multiple_expr (38)
    on left: 5 6, on right: 6 9
end (39)
    on left: 7, on right: 9
begin (40)
    on left: 8, on right: 9
block (41)
    on left: 9, on right: 10 11 12 13 14
conditional (42)
    on left: 10 11 12 13, on right: 42
function_def (43)
    on left: 14, on right: 3
key_value_pair (44)
    on left: 15, on right: 16 17
key_value_pairs (45)
    on left: 16 17, on right: 17 21
id (46)
    on left: 18, on right: 4 14 15 26 36 37 38
hash_start (47)
    on left: 19, on right: 20 21
hash (48)
    on left: 20 21, on right: 4 27
logic (49)
    on left: 22 23, on right: 28
val (50)
    on left: 24 25 26 27 28, on right: 44
expr (51)
    on left: 29 30 31 32 33 34 35 36 37 38 39 40 41 42 43 44, on right:
    2 5 6 10 11 12 13 15 29 30 31 32 33 34 35 36 37 38 39 40 41


State 0

    0 $accept: . axiom $end

    $default  reduce using rule 1 (axiom)

    axiom  go to state 1


State 1

    0 $accept: axiom . $end
    2 axiom: axiom . expr
    3      | axiom . function_def

    $end        shift, and go to state 2
    _CALL_KW    shift, and go to state 3
    _HASH       shift, and go to state 4
    _LOCAL_KW   shift, and go to state 5
    _IF_KW      shift, and go to state 6
    _UNLESS_KW  shift, and go to state 7
    _WHILE_KW   shift, and go to state 8
    _UNTIL_KW   shift, and go to state 9
    _ID         shift, and go to state 10
    _STRING     shift, and go to state 11
    _NUMERIC    shift, and go to state 12
    _FALSE      shift, and go to state 13
    _TRUE       shift, and go to state 14
    _INDENT     shift, and go to state 15
    _PRINT_OP   shift, and go to state 16
    _NOT_OP     shift, and go to state 17

    function_call  go to state 18
    conditional    go to state 19
    function_def   go to state 20
    id             go to state 21
    hash_start     go to state 22
    hash           go to state 23
    logic          go to state 24
    val            go to state 25
    expr           go to state 26


State 2

    0 $accept: axiom $end .

    $default  accept


State 3

    4 function_call: _CALL_KW . id _WITH_KW hash

    _ID  shift, and go to state 10

    id  go to state 27


State 4

   19 hash_start: _HASH .

    $default  reduce using rule 19 (hash_start)


State 5

   37 expr: _LOCAL_KW . id _ASSIGN_OP expr

    _ID  shift, and go to state 10

    id  go to state 28


State 6

   10 conditional: _IF_KW . expr block

    _CALL_KW    shift, and go to state 3
    _HASH       shift, and go to state 4
    _LOCAL_KW   shift, and go to state 5
    _IF_KW      shift, and go to state 6
    _UNLESS_KW  shift, and go to state 7
    _WHILE_KW   shift, and go to state 8
    _UNTIL_KW   shift, and go to state 9
    _ID         shift, and go to state 10
    _STRING     shift, and go to state 11
    _NUMERIC    shift, and go to state 12
    _FALSE      shift, and go to state 13
    _TRUE       shift, and go to state 14
    _INDENT     shift, and go to state 15
    _PRINT_OP   shift, and go to state 16
    _NOT_OP     shift, and go to state 17

    function_call  go to state 18
    conditional    go to state 19
    id             go to state 29
    hash_start     go to state 22
    hash           go to state 23
    logic          go to state 24
    val            go to state 25
    expr           go to state 30


State 7

   11 conditional: _UNLESS_KW . expr block

    _CALL_KW    shift, and go to state 3
    _HASH       shift, and go to state 4
    _LOCAL_KW   shift, and go to state 5
    _IF_KW      shift, and go to state 6
    _UNLESS_KW  shift, and go to state 7
    _WHILE_KW   shift, and go to state 8
    _UNTIL_KW   shift, and go to state 9
    _ID         shift, and go to state 10
    _STRING     shift, and go to state 11
    _NUMERIC    shift, and go to state 12
    _FALSE      shift, and go to state 13
    _TRUE       shift, and go to state 14
    _INDENT     shift, and go to state 15
    _PRINT_OP   shift, and go to state 16
    _NOT_OP     shift, and go to state 17

    function_call  go to state 18
    conditional    go to state 19
    id             go to state 29
    hash_start     go to state 22
    hash           go to state 23
    logic          go to state 24
    val            go to state 25
    expr           go to state 31


State 8

   12 conditional: _WHILE_KW . expr block

    _CALL_KW    shift, and go to state 3
    _HASH       shift, and go to state 4
    _LOCAL_KW   shift, and go to state 5
    _IF_KW      shift, and go to state 6
    _UNLESS_KW  shift, and go to state 7
    _WHILE_KW   shift, and go to state 8
    _UNTIL_KW   shift, and go to state 9
    _ID         shift, and go to state 10
    _STRING     shift, and go to state 11
    _NUMERIC    shift, and go to state 12
    _FALSE      shift, and go to state 13
    _TRUE       shift, and go to state 14
    _INDENT     shift, and go to state 15
    _PRINT_OP   shift, and go to state 16
    _NOT_OP     shift, and go to state 17

    function_call  go to state 18
    conditional    go to state 19
    id             go to state 29
    hash_start     go to state 22
    hash           go to state 23
    logic          go to state 24
    val            go to state 25
    expr           go to state 32


State 9

   13 conditional: _UNTIL_KW . expr block

    _CALL_KW    shift, and go to state 3
    _HASH       shift, and go to state 4
    _LOCAL_KW   shift, and go to state 5
    _IF_KW      shift, and go to state 6
    _UNLESS_KW  shift, and go to state 7
    _WHILE_KW   shift, and go to state 8
    _UNTIL_KW   shift, and go to state 9
    _ID         shift, and go to state 10
    _STRING     shift, and go to state 11
    _NUMERIC    shift, and go to state 12
    _FALSE      shift, and go to state 13
    _TRUE       shift, and go to state 14
    _INDENT     shift, and go to state 15
    _PRINT_OP   shift, and go to state 16
    _NOT_OP     shift, and go to state 17

    function_call  go to state 18
    conditional    go to state 19
    id             go to state 29
    hash_start     go to state 22
    hash           go to state 23
    logic          go to state 24
    val            go to state 25
    expr           go to state 33


State 10

   18 id: _ID .

    $default  reduce using rule 18 (id)


State 11

   25 val: _STRING .

    $default  reduce using rule 25 (val)


State 12

   24 val: _NUMERIC .

    $default  reduce using rule 24 (val)


State 13

   23 logic: _FALSE .

    $default  reduce using rule 23 (logic)


State 14

   22 logic: _TRUE .

    $default  reduce using rule 22 (logic)


State 15

   41 expr: _INDENT . expr _OUTDENT

    _CALL_KW    shift, and go to state 3
    _HASH       shift, and go to state 4
    _LOCAL_KW   shift, and go to state 5
    _IF_KW      shift, and go to state 6
    _UNLESS_KW  shift, and go to state 7
    _WHILE_KW   shift, and go to state 8
    _UNTIL_KW   shift, and go to state 9
    _ID         shift, and go to state 10
    _STRING     shift, and go to state 11
    _NUMERIC    shift, and go to state 12
    _FALSE      shift, and go to state 13
    _TRUE       shift, and go to state 14
    _INDENT     shift, and go to state 15
    _PRINT_OP   shift, and go to state 16
    _NOT_OP     shift, and go to state 17

    function_call  go to state 18
    conditional    go to state 19
    id             go to state 29
    hash_start     go to state 22
    hash           go to state 23
    logic          go to state 24
    val            go to state 25
    expr           go to state 34


State 16

   40 expr: _PRINT_OP . expr

    _CALL_KW    shift, and go to state 3
    _HASH       shift, and go to state 4
    _LOCAL_KW   shift, and go to state 5
    _IF_KW      shift, and go to state 6
    _UNLESS_KW  shift, and go to state 7
    _WHILE_KW   shift, and go to state 8
    _UNTIL_KW   shift, and go to state 9
    _ID         shift, and go to state 10
    _STRING     shift, and go to state 11
    _NUMERIC    shift, and go to state 12
    _FALSE      shift, and go to state 13
    _TRUE       shift, and go to state 14
    _INDENT     shift, and go to state 15
    _PRINT_OP   shift, and go to state 16
    _NOT_OP     shift, and go to state 17

    function_call  go to state 18
    conditional    go to state 19
    id             go to state 29
    hash_start     go to state 22
    hash           go to state 23
    logic          go to state 24
    val            go to state 25
    expr           go to state 35


State 17

   39 expr: _NOT_OP . expr

    _CALL_KW    shift, and go to state 3
    _HASH       shift, and go to state 4
    _LOCAL_KW   shift, and go to state 5
    _IF_KW      shift, and go to state 6
    _UNLESS_KW  shift, and go to state 7
    _WHILE_KW   shift, and go to state 8
    _UNTIL_KW   shift, and go to state 9
    _ID         shift, and go to state 10
    _STRING     shift, and go to state 11
    _NUMERIC    shift, and go to state 12
    _FALSE      shift, and go to state 13
    _TRUE       shift, and go to state 14
    _INDENT     shift, and go to state 15
    _PRINT_OP   shift, and go to state 16
    _NOT_OP     shift, and go to state 17

    function_call  go to state 18
    conditional    go to state 19
    id             go to state 29
    hash_start     go to state 22
    hash           go to state 23
    logic          go to state 24
    val            go to state 25
    expr           go to state 36


State 18

   43 expr: function_call .

    $default  reduce using rule 43 (expr)


State 19

   42 expr: conditional .

    $default  reduce using rule 42 (expr)


State 20

    3 axiom: axiom function_def .

    $default  reduce using rule 3 (axiom)


State 21

   14 function_def: id . _AS_KW _FUNCTION_KW _OF_OP id block
   26 val: id .
   36 expr: id . _ASSIGN_OP expr
   38     | id . _OF_OP expr

    _AS_KW      shift, and go to state 37
    _ASSIGN_OP  shift, and go to state 38
    _OF_OP      shift, and go to state 39

    $default  reduce using rule 26 (val)


State 22

   20 hash: hash_start . _INDENT _OUTDENT
   21     | hash_start . _INDENT key_value_pairs _OUTDENT

    _INDENT  shift, and go to state 40


State 23

   27 val: hash .

    $default  reduce using rule 27 (val)


State 24

   28 val: logic .

    $default  reduce using rule 28 (val)


State 25

   44 expr: val .

    $default  reduce using rule 44 (expr)


State 26

    2 axiom: axiom expr .
   29 expr: expr . _MUL_OP expr
   30     | expr . _DIV_OP expr
   31     | expr . _PLUS_OP expr
   32     | expr . _MINUS_OP expr
   33     | expr . _AND_OP expr
   34     | expr . _OR_OP expr
   35     | expr . _EQUALS_OP expr

    _PLUS_OP    shift, and go to state 41
    _MINUS_OP   shift, and go to state 42
    _MUL_OP     shift, and go to state 43
    _DIV_OP     shift, and go to state 44
    _AND_OP     shift, and go to state 45
    _OR_OP      shift, and go to state 46
    _EQUALS_OP  shift, and go to state 47

    $default  reduce using rule 2 (axiom)


State 27

    4 function_call: _CALL_KW id . _WITH_KW hash

    _WITH_KW  shift, and go to state 48


State 28

   37 expr: _LOCAL_KW id . _ASSIGN_OP expr

    _ASSIGN_OP  shift, and go to state 49


State 29

   26 val: id .
   36 expr: id . _ASSIGN_OP expr
   38     | id . _OF_OP expr

    _ASSIGN_OP  shift, and go to state 38
    _OF_OP      shift, and go to state 39

    $default  reduce using rule 26 (val)


State 30

   10 conditional: _IF_KW expr . block
   29 expr: expr . _MUL_OP expr
   30     | expr . _DIV_OP expr
   31     | expr . _PLUS_OP expr
   32     | expr . _MINUS_OP expr
   33     | expr . _AND_OP expr
   34     | expr . _OR_OP expr
   35     | expr . _EQUALS_OP expr

    _THEN_KW    shift, and go to state 50
    _PLUS_OP    shift, and go to state 41
    _MINUS_OP   shift, and go to state 42
    _MUL_OP     shift, and go to state 43
    _DIV_OP     shift, and go to state 44
    _AND_OP     shift, and go to state 45
    _OR_OP      shift, and go to state 46
    _EQUALS_OP  shift, and go to state 47

    begin  go to state 51
    block  go to state 52


State 31

   11 conditional: _UNLESS_KW expr . block
   29 expr: expr . _MUL_OP expr
   30     | expr . _DIV_OP expr
   31     | expr . _PLUS_OP expr
   32     | expr . _MINUS_OP expr
   33     | expr . _AND_OP expr
   34     | expr . _OR_OP expr
   35     | expr . _EQUALS_OP expr

    _THEN_KW    shift, and go to state 50
    _PLUS_OP    shift, and go to state 41
    _MINUS_OP   shift, and go to state 42
    _MUL_OP     shift, and go to state 43
    _DIV_OP     shift, and go to state 44
    _AND_OP     shift, and go to state 45
    _OR_OP      shift, and go to state 46
    _EQUALS_OP  shift, and go to state 47

    begin  go to state 51
    block  go to state 53


State 32

   12 conditional: _WHILE_KW expr . block
   29 expr: expr . _MUL_OP expr
   30     | expr . _DIV_OP expr
   31     | expr . _PLUS_OP expr
   32     | expr . _MINUS_OP expr
   33     | expr . _AND_OP expr
   34     | expr . _OR_OP expr
   35     | expr . _EQUALS_OP expr

    _THEN_KW    shift, and go to state 50
    _PLUS_OP    shift, and go to state 41
    _MINUS_OP   shift, and go to state 42
    _MUL_OP     shift, and go to state 43
    _DIV_OP     shift, and go to state 44
    _AND_OP     shift, and go to state 45
    _OR_OP      shift, and go to state 46
    _EQUALS_OP  shift, and go to state 47

    begin  go to state 51
    block  go to state 54


State 33

   13 conditional: _UNTIL_KW expr . block
   29 expr: expr . _MUL_OP expr
   30     | expr . _DIV_OP expr
   31     | expr . _PLUS_OP expr
   32     | expr . _MINUS_OP expr
   33     | expr . _AND_OP expr
   34     | expr . _OR_OP expr
   35     | expr . _EQUALS_OP expr

    _THEN_KW    shift, and go to state 50
    _PLUS_OP    shift, and go to state 41
    _MINUS_OP   shift, and go to state 42
    _MUL_OP     shift, and go to state 43
    _DIV_OP     shift, and go to state 44
    _AND_OP     shift, and go to state 45
    _OR_OP      shift, and go to state 46
    _EQUALS_OP  shift, and go to state 47

    begin  go to state 51
    block  go to state 55


State 34

   29 expr: expr . _MUL_OP expr
   30     | expr . _DIV_OP expr
   31     | expr . _PLUS_OP expr
   32     | expr . _MINUS_OP expr
   33     | expr . _AND_OP expr
   34     | expr . _OR_OP expr
   35     | expr . _EQUALS_OP expr
   41     | _INDENT expr . _OUTDENT

    _OUTDENT    shift, and go to state 56
    _PLUS_OP    shift, and go to state 41
    _MINUS_OP   shift, and go to state 42
    _MUL_OP     shift, and go to state 43
    _DIV_OP     shift, and go to state 44
    _AND_OP     shift, and go to state 45
    _OR_OP      shift, and go to state 46
    _EQUALS_OP  shift, and go to state 47


State 35

   29 expr: expr . _MUL_OP expr
   30     | expr . _DIV_OP expr
   31     | expr . _PLUS_OP expr
   32     | expr . _MINUS_OP expr
   33     | expr . _AND_OP expr
   34     | expr . _OR_OP expr
   35     | expr . _EQUALS_OP expr
   40     | _PRINT_OP expr .

    _PLUS_OP    shift, and go to state 41
    _MINUS_OP   shift, and go to state 42
    _MUL_OP     shift, and go to state 43
    _DIV_OP     shift, and go to state 44
    _AND_OP     shift, and go to state 45
    _OR_OP      shift, and go to state 46
    _EQUALS_OP  shift, and go to state 47

    $default  reduce using rule 40 (expr)


State 36

   29 expr: expr . _MUL_OP expr
   30     | expr . _DIV_OP expr
   31     | expr . _PLUS_OP expr
   32     | expr . _MINUS_OP expr
   33     | expr . _AND_OP expr
   34     | expr . _OR_OP expr
   35     | expr . _EQUALS_OP expr
   39     | _NOT_OP expr .

    $default  reduce using rule 39 (expr)


State 37

   14 function_def: id _AS_KW . _FUNCTION_KW _OF_OP id block

    _FUNCTION_KW  shift, and go to state 57


State 38

   36 expr: id _ASSIGN_OP . expr

    _CALL_KW    shift, and go to state 3
    _HASH       shift, and go to state 4
    _LOCAL_KW   shift, and go to state 5
    _IF_KW      shift, and go to state 6
    _UNLESS_KW  shift, and go to state 7
    _WHILE_KW   shift, and go to state 8
    _UNTIL_KW   shift, and go to state 9
    _ID         shift, and go to state 10
    _STRING     shift, and go to state 11
    _NUMERIC    shift, and go to state 12
    _FALSE      shift, and go to state 13
    _TRUE       shift, and go to state 14
    _INDENT     shift, and go to state 15
    _PRINT_OP   shift, and go to state 16
    _NOT_OP     shift, and go to state 17

    function_call  go to state 18
    conditional    go to state 19
    id             go to state 29
    hash_start     go to state 22
    hash           go to state 23
    logic          go to state 24
    val            go to state 25
    expr           go to state 58


State 39

   38 expr: id _OF_OP . expr

    _CALL_KW    shift, and go to state 3
    _HASH       shift, and go to state 4
    _LOCAL_KW   shift, and go to state 5
    _IF_KW      shift, and go to state 6
    _UNLESS_KW  shift, and go to state 7
    _WHILE_KW   shift, and go to state 8
    _UNTIL_KW   shift, and go to state 9
    _ID         shift, and go to state 10
    _STRING     shift, and go to state 11
    _NUMERIC    shift, and go to state 12
    _FALSE      shift, and go to state 13
    _TRUE       shift, and go to state 14
    _INDENT     shift, and go to state 15
    _PRINT_OP   shift, and go to state 16
    _NOT_OP     shift, and go to state 17

    function_call  go to state 18
    conditional    go to state 19
    id             go to state 29
    hash_start     go to state 22
    hash           go to state 23
    logic          go to state 24
    val            go to state 25
    expr           go to state 59


State 40

   20 hash: hash_start _INDENT . _OUTDENT
   21     | hash_start _INDENT . key_value_pairs _OUTDENT

    _ID       shift, and go to state 10
    _OUTDENT  shift, and go to state 60

    key_value_pair   go to state 61
    key_value_pairs  go to state 62
    id               go to state 63


State 41

   31 expr: expr _PLUS_OP . expr

    _CALL_KW    shift, and go to state 3
    _HASH       shift, and go to state 4
    _LOCAL_KW   shift, and go to state 5
    _IF_KW      shift, and go to state 6
    _UNLESS_KW  shift, and go to state 7
    _WHILE_KW   shift, and go to state 8
    _UNTIL_KW   shift, and go to state 9
    _ID         shift, and go to state 10
    _STRING     shift, and go to state 11
    _NUMERIC    shift, and go to state 12
    _FALSE      shift, and go to state 13
    _TRUE       shift, and go to state 14
    _INDENT     shift, and go to state 15
    _PRINT_OP   shift, and go to state 16
    _NOT_OP     shift, and go to state 17

    function_call  go to state 18
    conditional    go to state 19
    id             go to state 29
    hash_start     go to state 22
    hash           go to state 23
    logic          go to state 24
    val            go to state 25
    expr           go to state 64


State 42

   32 expr: expr _MINUS_OP . expr

    _CALL_KW    shift, and go to state 3
    _HASH       shift, and go to state 4
    _LOCAL_KW   shift, and go to state 5
    _IF_KW      shift, and go to state 6
    _UNLESS_KW  shift, and go to state 7
    _WHILE_KW   shift, and go to state 8
    _UNTIL_KW   shift, and go to state 9
    _ID         shift, and go to state 10
    _STRING     shift, and go to state 11
    _NUMERIC    shift, and go to state 12
    _FALSE      shift, and go to state 13
    _TRUE       shift, and go to state 14
    _INDENT     shift, and go to state 15
    _PRINT_OP   shift, and go to state 16
    _NOT_OP     shift, and go to state 17

    function_call  go to state 18
    conditional    go to state 19
    id             go to state 29
    hash_start     go to state 22
    hash           go to state 23
    logic          go to state 24
    val            go to state 25
    expr           go to state 65


State 43

   29 expr: expr _MUL_OP . expr

    _CALL_KW    shift, and go to state 3
    _HASH       shift, and go to state 4
    _LOCAL_KW   shift, and go to state 5
    _IF_KW      shift, and go to state 6
    _UNLESS_KW  shift, and go to state 7
    _WHILE_KW   shift, and go to state 8
    _UNTIL_KW   shift, and go to state 9
    _ID         shift, and go to state 10
    _STRING     shift, and go to state 11
    _NUMERIC    shift, and go to state 12
    _FALSE      shift, and go to state 13
    _TRUE       shift, and go to state 14
    _INDENT     shift, and go to state 15
    _PRINT_OP   shift, and go to state 16
    _NOT_OP     shift, and go to state 17

    function_call  go to state 18
    conditional    go to state 19
    id             go to state 29
    hash_start     go to state 22
    hash           go to state 23
    logic          go to state 24
    val            go to state 25
    expr           go to state 66


State 44

   30 expr: expr _DIV_OP . expr

    _CALL_KW    shift, and go to state 3
    _HASH       shift, and go to state 4
    _LOCAL_KW   shift, and go to state 5
    _IF_KW      shift, and go to state 6
    _UNLESS_KW  shift, and go to state 7
    _WHILE_KW   shift, and go to state 8
    _UNTIL_KW   shift, and go to state 9
    _ID         shift, and go to state 10
    _STRING     shift, and go to state 11
    _NUMERIC    shift, and go to state 12
    _FALSE      shift, and go to state 13
    _TRUE       shift, and go to state 14
    _INDENT     shift, and go to state 15
    _PRINT_OP   shift, and go to state 16
    _NOT_OP     shift, and go to state 17

    function_call  go to state 18
    conditional    go to state 19
    id             go to state 29
    hash_start     go to state 22
    hash           go to state 23
    logic          go to state 24
    val            go to state 25
    expr           go to state 67


State 45

   33 expr: expr _AND_OP . expr

    _CALL_KW    shift, and go to state 3
    _HASH       shift, and go to state 4
    _LOCAL_KW   shift, and go to state 5
    _IF_KW      shift, and go to state 6
    _UNLESS_KW  shift, and go to state 7
    _WHILE_KW   shift, and go to state 8
    _UNTIL_KW   shift, and go to state 9
    _ID         shift, and go to state 10
    _STRING     shift, and go to state 11
    _NUMERIC    shift, and go to state 12
    _FALSE      shift, and go to state 13
    _TRUE       shift, and go to state 14
    _INDENT     shift, and go to state 15
    _PRINT_OP   shift, and go to state 16
    _NOT_OP     shift, and go to state 17

    function_call  go to state 18
    conditional    go to state 19
    id             go to state 29
    hash_start     go to state 22
    hash           go to state 23
    logic          go to state 24
    val            go to state 25
    expr           go to state 68


State 46

   34 expr: expr _OR_OP . expr

    _CALL_KW    shift, and go to state 3
    _HASH       shift, and go to state 4
    _LOCAL_KW   shift, and go to state 5
    _IF_KW      shift, and go to state 6
    _UNLESS_KW  shift, and go to state 7
    _WHILE_KW   shift, and go to state 8
    _UNTIL_KW   shift, and go to state 9
    _ID         shift, and go to state 10
    _STRING     shift, and go to state 11
    _NUMERIC    shift, and go to state 12
    _FALSE      shift, and go to state 13
    _TRUE       shift, and go to state 14
    _INDENT     shift, and go to state 15
    _PRINT_OP   shift, and go to state 16
    _NOT_OP     shift, and go to state 17

    function_call  go to state 18
    conditional    go to state 19
    id             go to state 29
    hash_start     go to state 22
    hash           go to state 23
    logic          go to state 24
    val            go to state 25
    expr           go to state 69


State 47

   35 expr: expr _EQUALS_OP . expr

    _CALL_KW    shift, and go to state 3
    _HASH       shift, and go to state 4
    _LOCAL_KW   shift, and go to state 5
    _IF_KW      shift, and go to state 6
    _UNLESS_KW  shift, and go to state 7
    _WHILE_KW   shift, and go to state 8
    _UNTIL_KW   shift, and go to state 9
    _ID         shift, and go to state 10
    _STRING     shift, and go to state 11
    _NUMERIC    shift, and go to state 12
    _FALSE      shift, and go to state 13
    _TRUE       shift, and go to state 14
    _INDENT     shift, and go to state 15
    _PRINT_OP   shift, and go to state 16
    _NOT_OP     shift, and go to state 17

    function_call  go to state 18
    conditional    go to state 19
    id             go to state 29
    hash_start     go to state 22
    hash           go to state 23
    logic          go to state 24
    val            go to state 25
    expr           go to state 70


State 48

    4 function_call: _CALL_KW id _WITH_KW . hash

    _HASH  shift, and go to state 4

    hash_start  go to state 22
    hash        go to state 71


State 49

   37 expr: _LOCAL_KW id _ASSIGN_OP . expr

    _CALL_KW    shift, and go to state 3
    _HASH       shift, and go to state 4
    _LOCAL_KW   shift, and go to state 5
    _IF_KW      shift, and go to state 6
    _UNLESS_KW  shift, and go to state 7
    _WHILE_KW   shift, and go to state 8
    _UNTIL_KW   shift, and go to state 9
    _ID         shift, and go to state 10
    _STRING     shift, and go to state 11
    _NUMERIC    shift, and go to state 12
    _FALSE      shift, and go to state 13
    _TRUE       shift, and go to state 14
    _INDENT     shift, and go to state 15
    _PRINT_OP   shift, and go to state 16
    _NOT_OP     shift, and go to state 17

    function_call  go to state 18
    conditional    go to state 19
    id             go to state 29
    hash_start     go to state 22
    hash           go to state 23
    logic          go to state 24
    val            go to state 25
    expr           go to state 72


State 50

    8 begin: _THEN_KW .

    $default  reduce using rule 8 (begin)


State 51

    9 block: begin . multiple_expr end

    _CALL_KW    shift, and go to state 3
    _HASH       shift, and go to state 4
    _LOCAL_KW   shift, and go to state 5
    _IF_KW      shift, and go to state 6
    _UNLESS_KW  shift, and go to state 7
    _WHILE_KW   shift, and go to state 8
    _UNTIL_KW   shift, and go to state 9
    _ID         shift, and go to state 10
    _STRING     shift, and go to state 11
    _NUMERIC    shift, and go to state 12
    _FALSE      shift, and go to state 13
    _TRUE       shift, and go to state 14
    _INDENT     shift, and go to state 15
    _PRINT_OP   shift, and go to state 16
    _NOT_OP     shift, and go to state 17

    function_call  go to state 18
    multiple_expr  go to state 73
    conditional    go to state 19
    id             go to state 29
    hash_start     go to state 22
    hash           go to state 23
    logic          go to state 24
    val            go to state 25
    expr           go to state 74


State 52

   10 conditional: _IF_KW expr block .

    $default  reduce using rule 10 (conditional)


State 53

   11 conditional: _UNLESS_KW expr block .

    $default  reduce using rule 11 (conditional)


State 54

   12 conditional: _WHILE_KW expr block .

    $default  reduce using rule 12 (conditional)


State 55

   13 conditional: _UNTIL_KW expr block .

    $default  reduce using rule 13 (conditional)


State 56

   41 expr: _INDENT expr _OUTDENT .

    $default  reduce using rule 41 (expr)


State 57

   14 function_def: id _AS_KW _FUNCTION_KW . _OF_OP id block

    _OF_OP  shift, and go to state 75


State 58

   29 expr: expr . _MUL_OP expr
   30     | expr . _DIV_OP expr
   31     | expr . _PLUS_OP expr
   32     | expr . _MINUS_OP expr
   33     | expr . _AND_OP expr
   34     | expr . _OR_OP expr
   35     | expr . _EQUALS_OP expr
   36     | id _ASSIGN_OP expr .

    _PLUS_OP    shift, and go to state 41
    _MINUS_OP   shift, and go to state 42
    _MUL_OP     shift, and go to state 43
    _DIV_OP     shift, and go to state 44
    _AND_OP     shift, and go to state 45
    _OR_OP      shift, and go to state 46
    _EQUALS_OP  shift, and go to state 47

    $default  reduce using rule 36 (expr)


State 59

   29 expr: expr . _MUL_OP expr
   30     | expr . _DIV_OP expr
   31     | expr . _PLUS_OP expr
   32     | expr . _MINUS_OP expr
   33     | expr . _AND_OP expr
   34     | expr . _OR_OP expr
   35     | expr . _EQUALS_OP expr
   38     | id _OF_OP expr .

    $default  reduce using rule 38 (expr)


State 60

   20 hash: hash_start _INDENT _OUTDENT .

    $default  reduce using rule 20 (hash)


State 61

   16 key_value_pairs: key_value_pair .
   17                | key_value_pair . _COMMA key_value_pairs

    _COMMA  shift, and go to state 76

    $default  reduce using rule 16 (key_value_pairs)


State 62

   21 hash: hash_start _INDENT key_value_pairs . _OUTDENT

    _OUTDENT  shift, and go to state 77


State 63

   15 key_value_pair: id . _PROJECTS_TO expr

    _PROJECTS_TO  shift, and go to state 78


State 64

   29 expr: expr . _MUL_OP expr
   30     | expr . _DIV_OP expr
   31     | expr . _PLUS_OP expr
   31     | expr _PLUS_OP expr .
   32     | expr . _MINUS_OP expr
   33     | expr . _AND_OP expr
   34     | expr . _OR_OP expr
   35     | expr . _EQUALS_OP expr

    _MUL_OP     shift, and go to state 43
    _DIV_OP     shift, and go to state 44
    _AND_OP     shift, and go to state 45
    _OR_OP      shift, and go to state 46
    _EQUALS_OP  shift, and go to state 47

    $default  reduce using rule 31 (expr)


State 65

   29 expr: expr . _MUL_OP expr
   30     | expr . _DIV_OP expr
   31     | expr . _PLUS_OP expr
   32     | expr . _MINUS_OP expr
   32     | expr _MINUS_OP expr .
   33     | expr . _AND_OP expr
   34     | expr . _OR_OP expr
   35     | expr . _EQUALS_OP expr

    _MUL_OP     shift, and go to state 43
    _DIV_OP     shift, and go to state 44
    _AND_OP     shift, and go to state 45
    _OR_OP      shift, and go to state 46
    _EQUALS_OP  shift, and go to state 47

    $default  reduce using rule 32 (expr)


State 66

   29 expr: expr . _MUL_OP expr
   29     | expr _MUL_OP expr .
   30     | expr . _DIV_OP expr
   31     | expr . _PLUS_OP expr
   32     | expr . _MINUS_OP expr
   33     | expr . _AND_OP expr
   34     | expr . _OR_OP expr
   35     | expr . _EQUALS_OP expr

    _AND_OP     shift, and go to state 45
    _OR_OP      shift, and go to state 46
    _EQUALS_OP  shift, and go to state 47

    $default  reduce using rule 29 (expr)


State 67

   29 expr: expr . _MUL_OP expr
   30     | expr . _DIV_OP expr
   30     | expr _DIV_OP expr .
   31     | expr . _PLUS_OP expr
   32     | expr . _MINUS_OP expr
   33     | expr . _AND_OP expr
   34     | expr . _OR_OP expr
   35     | expr . _EQUALS_OP expr

    _AND_OP     shift, and go to state 45
    _OR_OP      shift, and go to state 46
    _EQUALS_OP  shift, and go to state 47

    $default  reduce using rule 30 (expr)


State 68

   29 expr: expr . _MUL_OP expr
   30     | expr . _DIV_OP expr
   31     | expr . _PLUS_OP expr
   32     | expr . _MINUS_OP expr
   33     | expr . _AND_OP expr
   33     | expr _AND_OP expr .
   34     | expr . _OR_OP expr
   35     | expr . _EQUALS_OP expr

    _EQUALS_OP  shift, and go to state 47

    $default  reduce using rule 33 (expr)


State 69

   29 expr: expr . _MUL_OP expr
   30     | expr . _DIV_OP expr
   31     | expr . _PLUS_OP expr
   32     | expr . _MINUS_OP expr
   33     | expr . _AND_OP expr
   34     | expr . _OR_OP expr
   34     | expr _OR_OP expr .
   35     | expr . _EQUALS_OP expr

    _EQUALS_OP  shift, and go to state 47

    $default  reduce using rule 34 (expr)


State 70

   29 expr: expr . _MUL_OP expr
   30     | expr . _DIV_OP expr
   31     | expr . _PLUS_OP expr
   32     | expr . _MINUS_OP expr
   33     | expr . _AND_OP expr
   34     | expr . _OR_OP expr
   35     | expr . _EQUALS_OP expr
   35     | expr _EQUALS_OP expr .

    $default  reduce using rule 35 (expr)


State 71

    4 function_call: _CALL_KW id _WITH_KW hash .

    $default  reduce using rule 4 (function_call)


State 72

   29 expr: expr . _MUL_OP expr
   30     | expr . _DIV_OP expr
   31     | expr . _PLUS_OP expr
   32     | expr . _MINUS_OP expr
   33     | expr . _AND_OP expr
   34     | expr . _OR_OP expr
   35     | expr . _EQUALS_OP expr
   37     | _LOCAL_KW id _ASSIGN_OP expr .

    _PLUS_OP    shift, and go to state 41
    _MINUS_OP   shift, and go to state 42
    _MUL_OP     shift, and go to state 43
    _DIV_OP     shift, and go to state 44
    _AND_OP     shift, and go to state 45
    _OR_OP      shift, and go to state 46
    _EQUALS_OP  shift, and go to state 47

    $default  reduce using rule 37 (expr)


State 73

    6 multiple_expr: multiple_expr . expr
    9 block: begin multiple_expr . end

    _CALL_KW    shift, and go to state 3
    _END_KW     shift, and go to state 79
    _HASH       shift, and go to state 4
    _LOCAL_KW   shift, and go to state 5
    _IF_KW      shift, and go to state 6
    _UNLESS_KW  shift, and go to state 7
    _WHILE_KW   shift, and go to state 8
    _UNTIL_KW   shift, and go to state 9
    _ID         shift, and go to state 10
    _STRING     shift, and go to state 11
    _NUMERIC    shift, and go to state 12
    _FALSE      shift, and go to state 13
    _TRUE       shift, and go to state 14
    _INDENT     shift, and go to state 15
    _PRINT_OP   shift, and go to state 16
    _NOT_OP     shift, and go to state 17

    function_call  go to state 18
    end            go to state 80
    conditional    go to state 19
    id             go to state 29
    hash_start     go to state 22
    hash           go to state 23
    logic          go to state 24
    val            go to state 25
    expr           go to state 81


State 74

    5 multiple_expr: expr .
   29 expr: expr . _MUL_OP expr
   30     | expr . _DIV_OP expr
   31     | expr . _PLUS_OP expr
   32     | expr . _MINUS_OP expr
   33     | expr . _AND_OP expr
   34     | expr . _OR_OP expr
   35     | expr . _EQUALS_OP expr

    _PLUS_OP    shift, and go to state 41
    _MINUS_OP   shift, and go to state 42
    _MUL_OP     shift, and go to state 43
    _DIV_OP     shift, and go to state 44
    _AND_OP     shift, and go to state 45
    _OR_OP      shift, and go to state 46
    _EQUALS_OP  shift, and go to state 47

    $default  reduce using rule 5 (multiple_expr)


State 75

   14 function_def: id _AS_KW _FUNCTION_KW _OF_OP . id block

    _ID  shift, and go to state 10

    id  go to state 82


State 76

   17 key_value_pairs: key_value_pair _COMMA . key_value_pairs

    _ID  shift, and go to state 10

    key_value_pair   go to state 61
    key_value_pairs  go to state 83
    id               go to state 63


State 77

   21 hash: hash_start _INDENT key_value_pairs _OUTDENT .

    $default  reduce using rule 21 (hash)


State 78

   15 key_value_pair: id _PROJECTS_TO . expr

    _CALL_KW    shift, and go to state 3
    _HASH       shift, and go to state 4
    _LOCAL_KW   shift, and go to state 5
    _IF_KW      shift, and go to state 6
    _UNLESS_KW  shift, and go to state 7
    _WHILE_KW   shift, and go to state 8
    _UNTIL_KW   shift, and go to state 9
    _ID         shift, and go to state 10
    _STRING     shift, and go to state 11
    _NUMERIC    shift, and go to state 12
    _FALSE      shift, and go to state 13
    _TRUE       shift, and go to state 14
    _INDENT     shift, and go to state 15
    _PRINT_OP   shift, and go to state 16
    _NOT_OP     shift, and go to state 17

    function_call  go to state 18
    conditional    go to state 19
    id             go to state 29
    hash_start     go to state 22
    hash           go to state 23
    logic          go to state 24
    val            go to state 25
    expr           go to state 84


State 79

    7 end: _END_KW .

    $default  reduce using rule 7 (end)


State 80

    9 block: begin multiple_expr end .

    $default  reduce using rule 9 (block)


State 81

    6 multiple_expr: multiple_expr expr .
   29 expr: expr . _MUL_OP expr
   30     | expr . _DIV_OP expr
   31     | expr . _PLUS_OP expr
   32     | expr . _MINUS_OP expr
   33     | expr . _AND_OP expr
   34     | expr . _OR_OP expr
   35     | expr . _EQUALS_OP expr

    _PLUS_OP    shift, and go to state 41
    _MINUS_OP   shift, and go to state 42
    _MUL_OP     shift, and go to state 43
    _DIV_OP     shift, and go to state 44
    _AND_OP     shift, and go to state 45
    _OR_OP      shift, and go to state 46
    _EQUALS_OP  shift, and go to state 47

    $default  reduce using rule 6 (multiple_expr)


State 82

   14 function_def: id _AS_KW _FUNCTION_KW _OF_OP id . block

    _THEN_KW  shift, and go to state 50

    begin  go to state 51
    block  go to state 85


State 83

   17 key_value_pairs: key_value_pair _COMMA key_value_pairs .

    $default  reduce using rule 17 (key_value_pairs)


State 84

   15 key_value_pair: id _PROJECTS_TO expr .
   29 expr: expr . _MUL_OP expr
   30     | expr . _DIV_OP expr
   31     | expr . _PLUS_OP expr
   32     | expr . _MINUS_OP expr
   33     | expr . _AND_OP expr
   34     | expr . _OR_OP expr
   35     | expr . _EQUALS_OP expr

    _PLUS_OP    shift, and go to state 41
    _MINUS_OP   shift, and go to state 42
    _MUL_OP     shift, and go to state 43
    _DIV_OP     shift, and go to state 44
    _AND_OP     shift, and go to state 45
    _OR_OP      shift, and go to state 46
    _EQUALS_OP  shift, and go to state 47

    $default  reduce using rule 15 (key_value_pair)


State 85

   14 function_def: id _AS_KW _FUNCTION_KW _OF_OP id block .

    $default  reduce using rule 14 (function_def)
